140967,NATSMOS-42,Story,Closed,Done,26.1
140532,NATSMOS-80,Story,Closed,Done,58.1
140646,NATSMOS-28,Story,Closed,Done,47.1
140719,NATSMOS-29,Story,Closed,Done,47.1
140645,NATSMOS-79,Story,Closed,Done,0
139821,NATSMOS-67,Story,Closed,Done,20.8
131085,NATSMOS-68,Story,Closed,Done,25.8
140647,NATSMOS-24,Story,Closed,Done,0
140648,NATSMOS-25,Story,Closed,Done,5
140634,NATSMOS-32,Story,Closed,Done,2.8
140639,NATSMOS-31,Story,Closed,Done,0
140964,NATSMOS-39,Story,Closed,Done,5.1
140966,NATSMOS-41,Story,Closed,Done,5.1
140965,NATSMOS-40,Story,Closed,Done,0
140953,NATSMOS-33,Story,Closed,Done,0
140954,NATSMOS-34,Story,Closed,Done,0
140963,NATSMOS-38,Story,Closed,Done,0.9
140970,NATSMOS-45,Story,Closed,Done,5.1
140969,NATSMOS-44,Story,Closed,Done,5.1
140971,NATSMOS-46,Story,Closed,Done,5.2
140972,NATSMOS-47,Story,Closed,Done,3.2
140974,NATSMOS-49,Story,Closed,Done,0.7
140973,NATSMOS-48,Story,Closed,Done,0.7
140976,NATSMOS-51,Story,Closed,Done,0.7
140977,NATSMOS-52,Story,Closed,Done,5.2
140978,NATSMOS-53,Story,Closed,Done,5.1
140957,NATSMOS-35,Story,Closed,Done,1.7
140653,NATSMOS-65,Story,Closed,Done,23.7
140654,NATSMOS-62,Story,Closed,Done,15
140991,NATSMOS-69,Story,Closed,Done,11
140532,NATSMOS-80,Story,Closed,Done,58.1
141469,NATSMOS-153,Story,Closed,Done,0
141662,NATSMOS-214,Story,Closed,Done,15
141254,NATSMOS-129,Story,Closed,Done,7.9
140916,NATSMOS-21,Story,Closed,Done,24.8
141277,NATSMOS-133,Story,Closed,Done,12.9
131091,NATSMOS-163,Story,Closed,Done,8.9
141242,NATSMOS-117,Story,Closed,Done,5.3
140835,NATSMOS-19,Story,Closed,Done,1.2
140652,NATSMOS-16,Story,Closed,Done,4
140667,NATSMOS-12,Story,Closed,Done,4
140633,NATSMOS-9,Story,Closed,Done,23
141495,NATSMOS-162,Story,Closed,Done,3.8
141498,NATSMOS-169,Story,Closed,Done,4.1
140096,NATSMOS-83,Story,Closed,Done,0
140963,NATSMOS-38,Story,Closed,Done,0.9
140972,NATSMOS-47,Story,Closed,Done,3.2
140974,NATSMOS-49,Story,Closed,Done,0.7
140973,NATSMOS-48,Story,Closed,Done,0.7
140976,NATSMOS-51,Story,Closed,Done,0.7
140957,NATSMOS-35,Story,Closed,Done,1.7
140991,NATSMOS-69,Story,Closed,Done,11
141290,NATSMOS-140,Story,Closed,Done,5.9
141470,NATSMOS-154,Story,Closed,Done,0
141574,NATSMOS-184,Story,Closed,Done,7
141751,NATSMOS-233,Story,Closed,Done,0
140532,NATSMOS-80,Story,Closed,Done,58.1
141453,NATSMOS-151,Story,Closed,Done,0
141779,NATSMOS-242,Story,Closed,Done,0
141778,NATSMOS-241,Story,Closed,Done,0
141776,NATSMOS-240,Story,Closed,Done,0.8
141469,NATSMOS-153,Story,Closed,Done,0
141662,NATSMOS-214,Story,Closed,Done,15
141552,NATSMOS-182,Story,Closed,Done,0
141221,NATSMOS-107,Story,Closed,Done,0
141540,NATSMOS-176,Story,Closed,Done,0
140916,NATSMOS-21,Story,Closed,Done,24.8
140633,NATSMOS-9,Story,Closed,Done,23
140653,NATSMOS-65,Story,Closed,Done,23.7
141561,NATSMOS-183,Story,Closed,Done,1
141525,NATSMOS-171,Story,Closed,Done,0.1
141603,NATSMOS-195,Story,Closed,Done,5.8
141669,NATSMOS-217,Story,Closed,Done,3.9
141675,NATSMOS-223,Story,Closed,Done,2
141574,NATSMOS-184,Story,Closed,Done,7
142170,NATSMOS-309,Story,Closed,Done,0.7
141544,NATSMOS-180,Story,Closed,Done,0
142130,NATSMOS-287,Story,Closed,Done,0
142133,NATSMOS-289,Story,Closed,Done,0
142135,NATSMOS-290,Story,Closed,Done,0
141285,NATSMOS-137,Story,Closed,Done,6
140967,NATSMOS-42,Story,Closed,Done,26.1
141751,NATSMOS-233,Story,Closed,Done,0
142151,NATSMOS-306,Story,Closed,Done,0
141531,NATSMOS-174,Story,Closed,Done,0
141532,NATSMOS-175,Story,Closed,Done,0
141453,NATSMOS-151,Story,Closed,Done,0
140489,NATSMOS-105,Story,Closed,Done,0
142088,NATSMOS-280,Story,Closed,Done,14.7
142050,NATSMOS-272,Story,Closed,Done,0
142054,NATSMOS-275,Story,Closed,Done,0
142045,NATSMOS-269,Story,Closed,Done,0
142334,NATSMOS-384,Story,Closed,Done,0
142343,NATSMOS-387,Story,Closed,Done,6.9
142130,NATSMOS-287,Story,Closed,Done,0
142133,NATSMOS-289,Story,Closed,Done,0
142135,NATSMOS-290,Story,Closed,Done,0
140967,NATSMOS-42,Story,Closed,Done,26.1
142724,NATSMOS-434,Story,Closed,Done,7
142591,NATSMOS-408,Story,Closed,Done,14
141751,NATSMOS-233,Story,Closed,Done,0
141531,NATSMOS-174,Story,Closed,Done,0
141532,NATSMOS-175,Story,Closed,Done,0
141453,NATSMOS-151,Story,Closed,Done,0
140489,NATSMOS-105,Story,Closed,Done,0
142088,NATSMOS-280,Story,Closed,Done,14.7
142050,NATSMOS-272,Story,Closed,Done,0
142626,NATSMOS-416,Story,Closed,Done,0
142045,NATSMOS-269,Story,Closed,Done,0
142993,NATSMOS-506,Story,Closed,Done,3
142994,NATSMOS-507,Story,Closed,Done,4.9
142996,NATSMOS-509,Story,Closed,Done,3.1
142700,NATSMOS-421,Story,Closed,Done,23.7
142833,NATSMOS-452,Story,Closed,Done,0
142781,NATSMOS-444,Story,Closed,Done,0
142782,NATSMOS-445,Story,Closed,Done,0
140967,NATSMOS-42,Story,Closed,Done,26.1
142724,NATSMOS-434,Story,Closed,Done,7
142591,NATSMOS-408,Story,Closed,Done,14
142964,NATSMOS-496,Story,Closed,Done,0
141751,NATSMOS-233,Story,Closed,Done,0
143333,NATSMOS-558,Story,Closed,Done,1.2
141469,NATSMOS-153,Story,Closed,Done,0
141662,NATSMOS-214,Story,Closed,Done,15
141552,NATSMOS-182,Story,Closed,Done,0
142993,NATSMOS-506,Story,Closed,Done,3
142994,NATSMOS-507,Story,Closed,Done,4.9
142996,NATSMOS-509,Story,Closed,Done,3.1
142700,NATSMOS-421,Story,Closed,Done,23.7
143310,NATSMOS-546,Story,Closed,Done,0
142833,NATSMOS-452,Story,Closed,Done,0
142781,NATSMOS-444,Story,Closed,Done,0
142782,NATSMOS-445,Story,Closed,Done,0
143316,NATSMOS-550,Story,Closed,Done,0
139549,NATSMOS-110,Story,Closed,Done,26.9
143505,NATSMOS-618,Story,Closed,Done,15.1
142865,NATSMOS-459,Story,Closed,Done,114.1
142775,NATSMOS-441,Story,Closed,Done,9.8
143383,NATSMOS-587,Story,Closed,Done,1.3
142624,NATSMOS-414,Story,Closed,Done,10.3
143411,NATSMOS-611,Story,Closed,Done,9.8
143341,NATSMOS-561,Story,Closed,Done,0
143586,NATSMOS-670,Story,Closed,Done,0
143529,NATSMOS-632,Story,Closed,Done,0
139549,NATSMOS-110,Story,Closed,Done,26.9
139550,NATSMOS-111,Story,Closed,Done,110.9
143350,NATSMOS-565,Story,Closed,Done,18.9
143505,NATSMOS-618,Story,Closed,Done,15.1
143592,NATSMOS-676,Story,Closed,Done,8.6
143612,NATSMOS-689,Story,Closed,Done,8.6
143622,NATSMOS-695,Story,Closed,Done,11
143585,NATSMOS-669,Story,Closed,Done,3.9
143330,NATSMOS-556,Story,Closed,Done,26
143385,NATSMOS-589,Story,Closed,Done,3
143383,NATSMOS-587,Story,Closed,Done,1.3
142624,NATSMOS-414,Story,Closed,Done,10.3
142777,NATSMOS-443,Story,Closed,Done,1.3
143887,NATSMOS-718,Story,Closed,Done,2.1
143888,NATSMOS-719,Story,Closed,Done,3.1
143891,NATSMOS-721,Story,Closed,Done,0.3
143411,NATSMOS-611,Story,Closed,Done,9.8
144004,NATSMOS-749,Story,Closed,Done,7
143584,NATSMOS-668,Story,Closed,Done,5
141282,NATSMOS-136,Story,Closed,Done,0.3
142286,NATSMOS-378,Story,Closed,Done,6.8
141285,NATSMOS-137,Story,Closed,Done,6
143622,NATSMOS-695,Story,Closed,Done,11
143585,NATSMOS-669,Story,Closed,Done,3.9
144077,NATSMOS-766,Story,Closed,Done,0
143330,NATSMOS-556,Story,Closed,Done,26
141250,NATSMOS-125,Story,Closed,Done,4.2
142935,NATSMOS-481,Story,Closed,Done,6.9
143411,NATSMOS-611,Story,Closed,Done,9.8
144004,NATSMOS-749,Story,Closed,Done,7
143339,NATSMOS-560,Story,Closed,Done,0
143357,NATSMOS-567,Story,Closed,Done,13.9
141245,NATSMOS-120,Story,Closed,Done,5.3
142892,NATSMOS-468,Story,Closed,Done,6.3
143343,NATSMOS-562,Story,Closed,Done,1
144177,NATSMOS-804,Story,Closed,Done,7.1
142880,NATSMOS-467,Story,Closed,Done,0
144076,NATSMOS-765,Story,Closed,Done,19.2
141588,NATSMOS-189,Story,Closed,Done,23
143538,NATSMOS-635,Story,Closed,Done,24
143584,NATSMOS-668,Story,Closed,Done,5
142135,NATSMOS-290,Story,Closed,Done,0
143529,NATSMOS-632,Story,Closed,Done,0
139549,NATSMOS-110,Story,Closed,Done,26.9
139550,NATSMOS-111,Story,Closed,Done,110.9
143350,NATSMOS-565,Story,Closed,Done,18.9
143505,NATSMOS-618,Story,Closed,Done,15.1
143592,NATSMOS-676,Story,Closed,Done,8.6
143612,NATSMOS-689,Story,Closed,Done,8.6
143343,NATSMOS-562,Story,Closed,Done,1
144177,NATSMOS-804,Story,Closed,Done,7.1
142880,NATSMOS-467,Story,Closed,Done,0
143358,NATSMOS-568,Story,Closed,Done,1.1
144174,NATSMOS-802,Story,Closed,Done,16.8
144218,NATSMOS-815,Story,Closed,Done,0
144103,NATSMOS-768,Story,Closed,Done,0
144347,NATSMOS-870,Story,Closed,Done,0
144102,NATSMOS-767,Story,Closed,Done,10.9
141248,NATSMOS-123,Story,Closed,Done,7.9
144397,NATSMOS-909,Story,Closed,Done,0.1
144385,NATSMOS-897,Story,Closed,Done,8.2
144377,NATSMOS-891,Story,Closed,Done,12.2
144375,NATSMOS-890,Story,Closed,Done,23
144374,NATSMOS-889,Story,Closed,Done,14
144076,NATSMOS-765,Story,Closed,Done,19.2
141588,NATSMOS-189,Story,Closed,Done,23
143538,NATSMOS-635,Story,Closed,Done,24
143584,NATSMOS-668,Story,Closed,Done,5
144358,NATSMOS-874,Story,Closed,Done,0
144276,NATSMOS-854,Story,Closed,Done,13.9
144360,NATSMOS-875,Story,Closed,Done,13.9
144378,NATSMOS-892,Story,Closed,Done,0
144390,NATSMOS-902,Story,Closed,Done,21.7
144395,NATSMOS-907,Story,Closed,Done,5.2
144480,NATSMOS-926,Story,Closed,Done,21.7
144077,NATSMOS-766,Story,Closed,Done,0
144172,NATSMOS-800,Story,Closed,Done,0
144174,NATSMOS-802,Story,Closed,Done,16.8
144218,NATSMOS-815,Story,Closed,Done,0
144165,NATSMOS-796,Story,Closed,Done,0.1
142972,NATSMOS-500,Story,Closed,Done,8
144812,NATSMOS-958,Story,Closed,Done,0
144347,NATSMOS-870,Story,Closed,Done,0
140773,NATSMOS-106,Story,Closed,Done,6.3
144517,NATSMOS-942,Story,Closed,Done,7.9
144375,NATSMOS-890,Story,Closed,Done,23
144374,NATSMOS-889,Story,Closed,Done,14
141588,NATSMOS-189,Story,Closed,Done,23
144276,NATSMOS-854,Story,Closed,Done,13.9
144360,NATSMOS-875,Story,Closed,Done,13.9
144390,NATSMOS-902,Story,Closed,Done,21.7
144480,NATSMOS-926,Story,Closed,Done,21.7
144810,NATSMOS-956,Story,Closed,Done,7
144393,NATSMOS-905,Story,Closed,Done,0
144392,NATSMOS-904,Story,Closed,Done,0
144388,NATSMOS-900,Story,Closed,Done,0
144381,NATSMOS-895,Story,Closed,Done,8.7
144384,NATSMOS-896,Story,Closed,Done,8.7
144820,NATSMOS-961,Story,Closed,Done,0
144812,NATSMOS-958,Story,Closed,Done,0
144222,NATSMOS-819,Story,Closed,Done,0
145247,NATSMOS-1035,Story,Closed,Done,25.1
144815,NATSMOS-960,Story,Closed,Done,6.9
145130,NATSMOS-1020,Story,Closed,Done,0
145013,NATSMOS-979,Story,Closed,Done,26.9
145363,NATSMOS-1077,Story,Closed,Done,0
145247,NATSMOS-1035,Story,Closed,Done,25.1
140548,NATSMOS-108,Story,Closed,Done,38.1
142136,NATSMOS-291,Story,Closed,Done,25.2
144532,NATSMOS-953,Story,Closed,Done,27.7
145253,NATSMOS-1036,Story,Closed,Done,12.3
145254,NATSMOS-1037,Story,Closed,Done,12.3
145234,NATSMOS-1031,Story,Closed,Done,41.1
145124,NATSMOS-1018,Story,Closed,Done,21.3
144991,NATSMOS-968,Story,Closed,Done,28.9
145306,NATSMOS-1056,Story,Closed,Done,26
145255,NATSMOS-1038,Story,Closed,Done,5
145256,NATSMOS-1039,Story,Closed,Done,5
144362,NATSMOS-877,Story,Closed,Done,5
144364,NATSMOS-879,Story,Closed,Done,6.8
145013,NATSMOS-979,Story,Closed,Done,26.9
144396,NATSMOS-908,Story,Closed,Done,22.2
145275,NATSMOS-1043,Story,Closed,Done,20.7
140548,NATSMOS-108,Story,Closed,Done,38.1
142136,NATSMOS-291,Story,Closed,Done,25.2
144473,NATSMOS-923,Story,Closed,Done,12.2
144532,NATSMOS-953,Story,Closed,Done,27.7
144394,NATSMOS-906,Story,Closed,Done,0
145234,NATSMOS-1031,Story,Closed,Done,41.1
145124,NATSMOS-1018,Story,Closed,Done,21.3
144991,NATSMOS-968,Story,Closed,Done,28.9
145306,NATSMOS-1056,Story,Closed,Done,26
144396,NATSMOS-908,Story,Closed,Done,22.2
145275,NATSMOS-1043,Story,Closed,Done,20.7
